tarea1
…
Ordena los estados por poblacin, de mayor a menor.

pob_states <- census %>%
  select(state, pop)
arrange(pob_states, desc(pop))

## # A tibble: 50 x 2
##    state             pop
##    <chr>           <dbl>
##  1 California   23667902
##  2 New York     17558072
##  3 Texas        14229191
##  4 Pennsylvania 11863895
##  5 Illinois     11426518
##  6 Ohio         10797630
##  7 Florida       9746324
##  8 Michigan      9262078
##  9 New Jersey    7364823
## 10 N. Carolina   5881766
## # ... with 40 more rows

Crea una nueva variable que contenga la tasa de divorcios /matrimonios para cada estado.

divorce_rate <- mutate(census, ratio = divorce/marriage)
# We only select state, pop, marriage, divorce and ratio because of too many columns otherwise
divorce_rate %>%
  select(state,pop,marriage,divorce,ratio)

## # A tibble: 50 x 5
##    state            pop marriage divorce ratio
##    <chr>          <dbl>    <dbl>   <dbl> <dbl>
##  1 Alabama      3893888    49018   26745 0.546
##  2 Alaska        401851     5361    3517 0.656
##  3 Arizona      2718215    30223   19908 0.659
##  4 Arkansas     2286435    26513   15882 0.599
##  5 California  23667902   210864  133541 0.633
##  6 Colorado     2889964    34917   18571 0.532
##  7 Connecticut  3107576    26048   13488 0.518
##  8 Delaware      594338     4437    2313 0.521
##  9 Florida      9746324   108344   71579 0.661
## 10 Georgia      5463105    70638   34743 0.492
## # ... with 40 more rows
…
# Estos pasos se hicieron simultneamente

chlstrl_BMI <- chlstrl %>%
  mutate(height = height*0.0254,
         weight = weight*0.454,
         BMI = weight/(height^2),
         ageGroup = case_when(age <= 40 ~ '10-40',
                             age > 40 & age <= 70 ~ '40-70',
                             age > 70 & age <= 100 ~ '70-100'
                             )
         )
chlstrl_BMI

## # A tibble: 403 x 9
##     chol   age gender height weight waist   hip   BMI ageGroup
##    <dbl> <dbl> <chr>   <dbl>  <dbl> <dbl> <dbl> <dbl> <chr>   
##  1   203    46 female   1.57   54.9    29    38  22.2 40-70   
##  2   165    29 female   1.63   99.0    46    48  37.5 10-40   
##  3   228    58 female   1.55  116.     49    57  48.4 40-70   
##  4    78    67 male     1.70   54.0    33    38  18.7 40-70   
##  5   249    64 male     1.73   83.1    44    41  27.8 40-70   
##  6   248    34 male     1.80   86.3    36    42  26.5 10-40   
##  7   195    30 male     1.75   86.7    46    49  28.2 10-40   
##  8   227    37 male     1.50   77.2    34    39  34.4 10-40   
##  9   177    45 male     1.75   75.4    34    40  24.5 40-70   
## 10   263    55 female   1.60   91.7    45    50  35.8 40-70   
## # ... with 393 more rows
…
## # A tibble: 3 x 3
##   ageGroup avgCholesterol avgBMI
##   <chr>             <dbl>  <dbl>
## 1 10-40              189.   30.5
## 2 40-70              221.   30.3
## 3 70-100             230.   29.4

chlstrl_BMI

## # A tibble: 403 x 9
##     chol   age gender height weight waist   hip   BMI ageGroup
##    <dbl> <dbl> <chr>   <dbl>  <dbl> <dbl> <dbl> <dbl> <chr>   
##  1   203    46 female   1.57   54.9    29    38  22.2 40-70   
##  2   165    29 female   1.63   99.0    46    48  37.5 10-40   
##  3   228    58 female   1.55  116.     49    57  48.4 40-70   
##  4    78    67 male     1.70   54.0    33    38  18.7 40-70   
##  5   249    64 male     1.73   83.1    44    41  27.8 40-70   
##  6   248    34 male     1.80   86.3    36    42  26.5 10-40   
##  7   195    30 male     1.75   86.7    46    49  28.2 10-40   
##  8   227    37 male     1.50   77.2    34    39  34.4 10-40   
##  9   177    45 male     1.75   75.4    34    40  24.5 40-70   
## 10   263    55 female   1.60   91.7    45    50  35.8 40-70   
## # ... with 393 more rows
…
z = cambioSignoPos(X)
z

##  [1]  6  7  9 10 12 13 14 15 17 18 19

Haz el ejercicio 6 de la Seccin 3.6.1 de R4DS.

mpg

## # A tibble: 234 x 11
##    manufacturer model      displ  year   cyl trans drv     cty   hwy fl    class
##    <chr>        <chr>      <dbl> <int> <int> <chr> <chr> <int> <int> <chr> <chr>
##  1 audi         a4           1.8  1999     4 auto~ f        18    29 p     comp~
##  2 audi         a4           1.8  1999     4 manu~ f        21    29 p     comp~
##  3 audi         a4           2    2008     4 manu~ f        20    31 p     comp~
##  4 audi         a4           2    2008     4 auto~ f        21    30 p     comp~
##  5 audi         a4           2.8  1999     6 auto~ f        16    26 p     comp~
##  6 audi         a4           2.8  1999     6 manu~ f        18    26 p     comp~
##  7 audi         a4           3.1  2008     6 auto~ f        18    27 p     comp~
##  8 audi         a4 quattro   1.8  1999     4 manu~ 4        18    26 p     comp~
##  9 audi         a4 quattro   1.8  1999     4 auto~ 4        16    25 p     comp~
## 10 audi         a4 quattro   2    2008     4 manu~ 4        20    28 p     comp~
## # ... with 224 more rows
…
Haz el ejercicio 1 de la Seccin 5.2.4 de R4DS.

1. Had an arrival delay of two or more hours

library(nycflights13)
filter(flights, arr_delay >= 120)

## # A tibble: 10,200 x 19
##     year month   day dep_time sched_dep_time dep_delay arr_time sched_arr_time
##    <int> <int> <int>    <int>          <int>     <dbl>    <int>          <int>
##  1  2013     1     1      811            630       101     1047            830
##  2  2013     1     1      848           1835       853     1001           1950
##  3  2013     1     1      957            733       144     1056            853
##  4  2013     1     1     1114            900       134     1447           1222
##  5  2013     1     1     1505           1310       115     1638           1431
##  6  2013     1     1     1525           1340       105     1831           1626
##  7  2013     1     1     1549           1445        64     1912           1656
##  8  2013     1     1     1558           1359       119     1718           1515
##  9  2013     1     1     1732           1630        62     2028           1825
## 10  2013     1     1     1803           1620       103     2008           1750
## # ... with 10,190 more rows, and 11 more variables: arr_delay <dbl>,
## #   carrier <chr>, flight <int>, tailnum <chr>, origin <chr>, dest <chr>,
## #   air_time <dbl>, distance <dbl>, hour <dbl>, minute <dbl>, time_hour <dttm>

2. Flew to Houston (IAH or HOU)

filter(flights, dest == "IAH" | dest == "HOU")

## # A tibble: 9,313 x 19
##     year month   day dep_time sched_dep_time dep_delay arr_time sched_arr_time
##    <int> <int> <int>    <int>          <int>     <dbl>    <int>          <int>
##  1  2013     1     1      517            515         2      830            819
##  2  2013     1     1      533            529         4      850            830
##  3  2013     1     1      623            627        -4      933            932
##  4  2013     1     1      728            732        -4     1041           1038
##  5  2013     1     1      739            739         0     1104           1038
##  6  2013     1     1      908            908         0     1228           1219
##  7  2013     1     1     1028           1026         2     1350           1339
##  8  2013     1     1     1044           1045        -1     1352           1351
##  9  2013     1     1     1114            900       134     1447           1222
## 10  2013     1     1     1205           1200         5     1503           1505
## # ... with 9,303 more rows, and 11 more variables: arr_delay <dbl>,
## #   carrier <chr>, flight <int>, tailnum <chr>, origin <chr>, dest <chr>,
## #   air_time <dbl>, distance <dbl>, hour <dbl>, minute <dbl>, time_hour <dttm>
…
filter(flights, carrier %in% c("AA", "DL", "UA"))

## # A tibble: 139,504 x 19
##     year month   day dep_time sched_dep_time dep_delay arr_time sched_arr_time
##    <int> <int> <int>    <int>          <int>     <dbl>    <int>          <int>
##  1  2013     1     1      517            515         2      830            819
##  2  2013     1     1      533            529         4      850            830
##  3  2013     1     1      542            540         2      923            850
##  4  2013     1     1      554            600        -6      812            837
##  5  2013     1     1      554            558        -4      740            728
##  6  2013     1     1      558            600        -2      753            745
##  7  2013     1     1      558            600        -2      924            917
##  8  2013     1     1      558            600        -2      923            937
##  9  2013     1     1      559            600        -1      941            910
## 10  2013     1     1      559            600        -1      854            902
## # ... with 139,494 more rows, and 11 more variables: arr_delay <dbl>,
## #   carrier <chr>, flight <int>, tailnum <chr>, origin <chr>, dest <chr>,
## #   air_time <dbl>, distance <dbl>, hour <dbl>, minute <dbl>, time_hour <dttm>

4. Departed in summer (July, August, and September)

filter(flights, month >= 7, month <= 9)

## # A tibble: 86,326 x 19
##     year month   day dep_time sched_dep_time dep_delay arr_time sched_arr_time
##    <int> <int> <int>    <int>          <int>     <dbl>    <int>          <int>
##  1  2013     7     1        1           2029       212      236           2359
##  2  2013     7     1        2           2359         3      344            344
##  3  2013     7     1       29           2245       104      151              1
##  4  2013     7     1       43           2130       193      322             14
##  5  2013     7     1       44           2150       174      300            100
##  6  2013     7     1       46           2051       235      304           2358
##  7  2013     7     1       48           2001       287      308           2305
##  8  2013     7     1       58           2155       183      335             43
##  9  2013     7     1      100           2146       194      327             30
## 10  2013     7     1      100           2245       135      337            135
## # ... with 86,316 more rows, and 11 more variables: arr_delay <dbl>,
## #   carrier <chr>, flight <int>, tailnum <chr>, origin <chr>, dest <chr>,
## #   air_time <dbl>, distance <dbl>, hour <dbl>, minute <dbl>, time_hour <dttm>

5. Arrived more than two hours late, but didnt leave late

filter(flights, arr_delay > 120, dep_delay <= 0)

## # A tibble: 29 x 19
##     year month   day dep_time sched_dep_time dep_delay arr_time sched_arr_time
##    <int> <int> <int>    <int>          <int>     <dbl>    <int>          <int>
##  1  2013     1    27     1419           1420        -1     1754           1550
##  2  2013    10     7     1350           1350         0     1736           1526
##  3  2013    10     7     1357           1359        -2     1858           1654
##  4  2013    10    16      657            700        -3     1258           1056
##  5  2013    11     1      658            700        -2     1329           1015
##  6  2013     3    18     1844           1847        -3       39           2219
##  7  2013     4    17     1635           1640        -5     2049           1845
##  8  2013     4    18      558            600        -2     1149            850
##  9  2013     4    18      655            700        -5     1213            950
## 10  2013     5    22     1827           1830        -3     2217           2010
## # ... with 19 more rows, and 11 more variables: arr_delay <dbl>, carrier <chr>,
## #   flight <int>, tailnum <chr>, origin <chr>, dest <chr>, air_time <dbl>,
## #   distance <dbl>, hour <dbl>, minute <dbl>, time_hour <dttm>

6. Were delayed by at least an hour, but made up over 30 minutes in flight

filter(flights, dep_delay >= 60, dep_delay - arr_delay > 30)

## # A tibble: 1,844 x 19
##     year month   day dep_time sched_dep_time dep_delay arr_time sched_arr_time
##    <int> <int> <int>    <int>          <int>     <dbl>    <int>          <int>
##  1  2013     1     1     2205           1720       285       46           2040
##  2  2013     1     1     2326           2130       116      131             18
##  3  2013     1     3     1503           1221       162     1803           1555
##  4  2013     1     3     1839           1700        99     2056           1950
##  5  2013     1     3     1850           1745        65     2148           2120
##  6  2013     1     3     1941           1759       102     2246           2139
##  7  2013     1     3     1950           1845        65     2228           2227
##  8  2013     1     3     2015           1915        60     2135           2111
##  9  2013     1     3     2257           2000       177       45           2224
## 10  2013     1     4     1917           1700       137     2135           1950
## # ... with 1,834 more rows, and 11 more variables: arr_delay <dbl>,
## #   carrier <chr>, flight <int>, tailnum <chr>, origin <chr>, dest <chr>,
## #   air_time <dbl>, distance <dbl>, hour <dbl>, minute <dbl>, time_hour <dttm>

7. Departed between midnight and 6am (inclusive)

summary(flights$dep_time)

##    Min. 1st Qu.  Median    Mean 3rd Qu.    Max.    NA's 
##       1     907    1401    1349    1744    2400    8255

# In dep_time, midnight is represented by 2400, not 0

filter(flights, dep_time <= 600 | dep_time == 2400)

## # A tibble: 9,373 x 19
##     year month   day dep_time sched_dep_time dep_delay arr_time sched_arr_time
##    <int> <int> <int>    <int>          <int>     <dbl>    <int>          <int>
##  1  2013     1     1      517            515         2      830            819
##  2  2013     1     1      533            529         4      850            830
##  3  2013     1     1      542            540         2      923            850
##  4  2013     1     1      544            545        -1     1004           1022
##  5  2013     1     1      554            600        -6      812            837
##  6  2013     1     1      554            558        -4      740            728
##  7  2013     1     1      555            600        -5      913            854
##  8  2013     1     1      557            600        -3      709            723
##  9  2013     1     1      557            600        -3      838            846
## 10  2013     1     1      558            600        -2      753            745
## # ... with 9,363 more rows, and 11 more variables: arr_delay <dbl>,
## #   carrier <chr>, flight <int>, tailnum <chr>, origin <chr>, dest <chr>,
## #   air_time <dbl>, distance <dbl>, hour <dbl>, minute <dbl>, time_hour <dttm>
